"url","username","password","httpRealm","formActionOrigin","guid","timeCreated","timeLastUsed","timePasswordChanged"
"https://www.facebook.com","51704365","dave12345",,"https://www.facebook.com","{64578325-30c0-451a-afbb-af21c85f3cd0}","1632165715349","1632165715349","1632165715349"
"https://login.microsoftonline.com","kouame.ndri@supcom.tn","LetSupIn@",,"https://login.microsoftonline.com","{64a9b70c-8ea9-4cea-9a61-920982c6c4a7}","1632215929113","1632217019695","1632217019695"
"https://www.linkedin.com","L_tS@p2021","L_tS@p2021",,"https://www.linkedin.com","{8075942e-b547-4e73-a634-6ee132a9076d}","1632236596876","1632236596876","1632236596876"
"https://www.udemy.com","","tViid4Fy8vBhpAr",,"https://www.udemy.com","{6dff2c9c-3ba4-470c-9d0c-b2edaf882314}","1632599338357","1632599338357","1632599338357"
"https://webhosting.epistrophe.africa","aladin","68$i2yNx",,"https://webhosting.epistrophe.africa","{850b74f7-3bb5-4271-93ce-2bd6cb1fb4a0}","1632605067876","1632605067876","1632605067876"
"http://webmail.aladin.ci","dave.ndri@aladin.ci","@l@din2021",,"http://webmail.aladin.ci","{1eca456b-9a93-4c9a-aa4f-48ec398273c2}","1632755481343","1632911503321","1632755481343"
"https://pastel.diplomatie.gouv.fr","kouame.ndri@supcom.tn","LetJoin__",,"https://pastel.diplomatie.gouv.fr","{0e029a69-c4f3-45ac-b9fb-14a540ee7af8}","1632847418811","1632847991028","1632847751031"
"https://gitlab.com","DAVE800","NEWTRAINEE]",,"https://gitlab.com","{ea87138a-97ea-4220-a840-d1b6770c242f}","1633018594327","1633018594327","1633018594327"
"https://portal.aws.amazon.com","kouame.ndri@supcom.tn","SnI@2021",,"https://portal.aws.amazon.com","{9fa294ab-c2c6-4c25-a8b9-cfcd652209a7}","1633025946392","1633025946392","1633025946392"
"https://passport.alibabacloud.com","kouame.ndri@supcom.tn","JcHvYJknA7beUpa",,"https://passport.alibabacloud.com","{36737cf9-8af9-4733-bd0b-27b6f2cbc518}","1633026267064","1633026280032","1633026280032"